<?xml version="1.0" encoding="UTF-8"?>
<!DOCTYPE svg PUBLIC "-//W3C//DTD SVG 1.1//EN" "http://www.w3.org/Graphics/SVG/1.1/DTD/svg11.dtd">
<!-- Creator: CorelDRAW X7 -->
<svg xmlns="http://www.w3.org/2000/svg" xml:space="preserve" width="173px" height="153px" version="1.1" style="shape-rendering:geometricPrecision; text-rendering:geometricPrecision; image-rendering:optimizeQuality; fill-rule:evenodd; clip-rule:evenodd"
viewBox="0 0 1021776 902966"
 xmlns:xlink="http://www.w3.org/1999/xlink">
 <defs>
  <style type="text/css">
   <![CDATA[
    .str1 {stroke:#666666;stroke-width:15771.2}
    .str0 {stroke:#666666;stroke-width:15771.2;stroke-linecap:square}
    .fil0 {fill:none}
   ]]>
  </style>
 </defs>
 <g id="Layer_x0020_1">
  <metadata id="CorelCorpID_0Corel-Layer"/>
  <path class="fil0 str0" d="M473661 893369c10022,3105 66764,1272 81644,74 13576,-1093 73052,-9013 78829,-15812 0,-41859 -28768,-123285 -92906,-118481 -59484,4453 -83819,94198 -67567,134219z"/>
  <path class="fil0 str0" d="M322866 127933c25457,0 56805,-47778 55184,-72317 -5870,-88978 -180674,-41736 -114549,45071 14278,18747 37911,27246 59365,27246z"/>
  <path class="fil0 str0" d="M524337 727017c29836,0 61935,-22743 61935,-47208 0,-35973 -71856,-60083 -98461,-36045 -27601,24939 -12657,83253 36526,83253z"/>
  <path class="fil0 str0" d="M759414 126525c48835,12849 107990,-105816 20412,-110168 -35298,-1753 -56131,617 -63807,42250 -5486,29750 -5441,55069 43395,67918z"/>
  <path class="fil0 str0" d="M892437 368288c0,20575 32848,50676 59121,50676 40663,0 65861,-19292 61936,-59122 -3926,-39827 -28627,-51026 -76012,-51026 -31301,4486 -45045,40249 -45045,59472z"/>
  <path class="fil0 str0" d="M152188 742196c-8314,38150 -1442,71262 53667,71262 41781,0 72588,-59758 49864,-90094 -24344,-32496 -95215,-19316 -103531,18832z"/>
  <path class="fil0 str0" d="M53477 447117c60161,0 108936,-106980 2816,-106980 -68230,0 -59930,106980 -2816,106980z"/>
  <path class="fil0 str0" d="M866396 734278c45644,7918 70381,-13576 70381,-56307 0,-21355 -22526,-53490 -56304,-53490 -64187,0 -59721,101879 -14077,109797z"/>
  <path class="fil0 str0" d="M457382 56495c50464,-12463 137995,-14077 200682,-14077"/>
  <path class="fil0 str0" d="M801907 626066c-103803,-126480 -342794,-441379 -412706,-506227"/>
  <path class="fil0 str0" d="M900883 244417c-12781,-21664 -49232,-71754 -67567,-90092"/>
  <path class="fil0 str0" d="M95707 281016c33968,-34726 61801,-78695 98535,-115429"/>
  <path class="fil0 str0" d="M236472 644189c3851,-5406 31149,-390685 59121,-472970"/>
  <path class="fil0 str0" d="M931850 601959c13876,-29835 34997,-66682 45045,-95721"/>
  <path class="fil0 str0" d="M132306 680788c-9680,-51228 -34480,-101897 -45045,-152027"/>
  <path class="fil0 str1" d="M162301 370901c149211,-73902 315315,-162583 517313,-234375"/>
  <path class="fil0 str1" d="M166524 453249c83580,85437 152302,174590 250741,256311"/>
  <path class="fil0 str1" d="M174970 411019c121177,-14625 257239,-25529 394930,-31386 94234,-4008 189232,-5654 280743,-4509"/>
  <path class="fil0 str1" d="M882317 451136c-57011,66161 -162585,185108 -242820,236486"/>
 </g>
</svg>
